analysisscript.knit
…
glance(lm_fit2)

## # A tibble: 1 × 12
##   r.squared adj.r.squared sigma statistic      p.value    df logLik   AIC   BIC
##       <dbl>         <dbl> <dbl>     <dbl>        <dbl> <dbl>  <dbl> <dbl> <dbl>
## 1     0.129        0.0860  1.14      3.02 0.0000000420    34 -1116. 2304. 2469.
## # … with 3 more variables: deviance <dbl>, df.residual <int>, nobs <int>

tidy(lm_fit2)

## # A tibble: 38 × 5
##    term                 estimate std.error statistic   p.value
##    <chr>                   <dbl>     <dbl>     <dbl>     <dbl>
##  1 (Intercept)           97.9       0.304   322.     0        
##  2 SwollenLymphNodesYes  -0.165     0.0920   -1.80   0.0727   
##  3 ChestCongestionYes     0.0873    0.0975    0.895  0.371    
##  4 ChillsSweatsYes        0.201     0.127     1.58   0.114    
##  5 NasalCongestionYes    -0.216     0.114    -1.90   0.0584   
##  6 CoughYNYes             0.314     0.241     1.30   0.193    
##  7 SneezeYes             -0.362     0.0983   -3.68   0.000249 
##  8 FatigueYes             0.265     0.161     1.65   0.0996   
##  9 SubjectiveFeverYes     0.437     0.103     4.22   0.0000271
## 10 HeadacheYes            0.0115    0.125     0.0913 0.927    
## # … with 28 more rows
…
glance(lg_fit2)

## # A tibble: 1 × 8
##   null.deviance df.null logLik   AIC   BIC deviance df.residual  nobs
##           <dbl>   <int>  <dbl> <dbl> <dbl>    <dbl>       <int> <int>
## 1          878.     729  -335.  741.  901.     671.         695   730

tidy(lg_fit2)

## # A tibble: 38 × 5
##    term                 estimate std.error statistic  p.value
##    <chr>                   <dbl>     <dbl>     <dbl>    <dbl>
##  1 (Intercept)            4.89       8.03     0.609  5.42e- 1
##  2 SwollenLymphNodesYes   0.113      0.211    0.536  5.92e- 1
##  3 ChestCongestionYes     0.0222     0.221    0.101  9.20e- 1
##  4 ChillsSweatsYes       -0.0114     0.288   -0.0396 9.68e- 1
##  5 NasalCongestionYes     1.18       0.223    5.31   1.11e- 7
##  6 CoughYNYes             0.929      0.530    1.75   7.95e- 2
##  7 SneezeYes              1.72       0.215    7.98   1.43e-15
##  8 FatigueYes            -0.196      0.356   -0.551  5.82e- 1
##  9 SubjectiveFeverYes     0.0838     0.235    0.356  7.22e- 1
## 10 HeadacheYes            0.0924     0.274    0.337  7.36e- 1
## # … with 28 more rows
…
