Tidy Tuesday exercise 2
…
set.seed(123)

# Put 3/4 of the data into the training set
data_split <- initial_split(marbles_new, prop = 3/4)

# Create data frames for the two sets:
train_data <- training(data_split)
test_data  <- testing(data_split)

#CV
folds <- vfold_cv(train_data, v = 5, repeats = 5, strata = site)
folds

## #  5-fold cross-validation repeated 5 times using stratification 
## # A tibble: 25 × 3
##    splits           id      id2  
##    <list>           <chr>   <chr>
##  1 <split [147/42]> Repeat1 Fold1
##  2 <split [148/41]> Repeat1 Fold2
##  3 <split [151/38]> Repeat1 Fold3
##  4 <split [155/34]> Repeat1 Fold4
##  5 <split [155/34]> Repeat1 Fold5
##  6 <split [147/42]> Repeat2 Fold1
##  7 <split [148/41]> Repeat2 Fold2
##  8 <split [151/38]> Repeat2 Fold3
##  9 <split [155/34]> Repeat2 Fold4
## 10 <split [155/34]> Repeat2 Fold5
## # … with 15 more rows
…
#define workflow for tree
tree_wflow <- workflow() %>%
               add_model(tune_spec) %>%
               add_recipe(data_rec)

#tuning grid specification
tree_grid <- grid_regular(cost_complexity(),
                          tree_depth(),
                          levels = 5)

tree_grid

## # A tibble: 25 × 2
##    cost_complexity tree_depth
##              <dbl>      <int>
##  1    0.0000000001          1
##  2    0.0000000178          1
##  3    0.00000316            1
##  4    0.000562              1
##  5    0.1                   1
##  6    0.0000000001          4
##  7    0.0000000178          4
##  8    0.00000316            4
##  9    0.000562              4
## 10    0.1                   4
## # … with 15 more rows
…
